…
Additional models:

``` r
lenage_mod = lm(bwt ~ blength + gaweeks, data = train_df)
lensexhead_mod = lm(bwt ~ bhead*blength*babysex + bhead*blength + bhead*babysex + blength*babysex, data= train_df)
train_df %>% 
  gather_predictions(my_mod, lenage_mod, lensexhead_mod) %>%
  gather_residuals(my_mod, lenage_mod, lensexhead_mod)
```

    ## # A tibble: 2,880 x 23
    ##    model babysex bhead blength   bwt delwt fincome frace gaweeks malform
    ##    <chr> <fct>   <dbl>   <dbl> <dbl> <dbl>   <dbl> <dbl>   <dbl>   <dbl>
    ##  1 my_m~ 1          34      51  3203   176       5     2    39.9       0
    ##  2 my_m~ 2          32      50  2863   139      25     2    40.3       0
    ##  3 my_m~ 1          33      45  2466   133      25     2    40.4       0
    ##  4 my_m~ 2          36      52  3600   153      96     1    40         0
    ##  5 my_m~ 2          34      50  3572   122      75     1    41.6       0
    ##  6 my_m~ 1          36      54  3515   153      15     2    44         0
    ##  7 my_m~ 2          34      50  3402   142      25     4    43.3       0
    ##  8 my_m~ 1          33      51  3062   148       5     2    43.6       0
    ##  9 my_m~ 2          33      52  3033   154      55     1    41.1       0
    ## 10 my_m~ 2          32      48  2892   136      75     1    40.3       0
    ## # ... with 2,870 more rows, and 13 more variables: menarche <dbl>,
    ## #   mheight <dbl>, momage <dbl>, mrace <fct>, parity <dbl>, pnumlbw <dbl>,
    ## #   pnumsga <dbl>, ppbmi <dbl>, ppwt <dbl>, smoken <dbl>, wtgain <dbl>,
    ## #   pred <dbl>, resid <dbl>
…
